{
  "items" : [ {
    "external_urls" : {
      "spotify" : "https://open.spotify.com/artist/6GFfu1alUSrL7qazImC160"
    },
    "followers" : {
      "href" : null,
      "total" : 134995
    },
    "genres" : [ "chamber pop", "folk-pop", "indie anthem-folk", "indie folk", "stomp and holler" ],
    "href" : "https://api.spotify.com/v1/artists/6GFfu1alUSrL7qazImC160",
    "id" : "6GFfu1alUSrL7qazImC160",
    "images" : [ {
      "height" : 670,
      "url" : "https://i.scdn.co/image/1e214c1f855775b95c09b0757780a6352c77effd",
      "width" : 1000
    }, {
      "height" : 429,
      "url" : "https://i.scdn.co/image/3fc079c2afcf547ee70bb19a9c865f3a7dbe7894",
      "width" : 640
    }, {
      "height" : 134,
      "url" : "https://i.scdn.co/image/deb9e51df9c4737bb4d93d7dc7b0a71ff107a257",
      "width" : 200
    }, {
      "height" : 43,
      "url" : "https://i.scdn.co/image/7888c80380684cb01d321efc3a19f06fb204039d",
      "width" : 64
    } ],
    "name" : "Keaton Henson",
    "popularity" : 62,
    "type" : "artist",
    "uri" : "spotify:artist:6GFfu1alUSrL7qazImC160"
  }, {
    "external_urls" : {
      "spotify" : "https://open.spotify.com/artist/3D4qYDvoPn5cQxtBm4oseo"
    },
    "followers" : {
      "href" : null,
      "total" : 42059
    },
    "genres" : [ "alternative emo", "dreamo", "emo", "indie folk", "progressive post-hardcore", "screamo", "stomp and holler" ],
    "href" : "https://api.spotify.com/v1/artists/3D4qYDvoPn5cQxtBm4oseo",
    "id" : "3D4qYDvoPn5cQxtBm4oseo",
    "images" : [ {
      "height" : 730,
      "url" : "https://i.scdn.co/image/262a79ae510dac6a008451e59973ab66935073fa",
      "width" : 1000
    }, {
      "height" : 467,
      "url" : "https://i.scdn.co/image/c04fe05dcbcdedc534337597ab0295f1941adbcb",
      "width" : 640
    }, {
      "height" : 146,
      "url" : "https://i.scdn.co/image/4217576104bfe09218153516c92725282ac7d310",
      "width" : 200
    }, {
      "height" : 47,
      "url" : "https://i.scdn.co/image/14bd9098500ac3a10129d02971b23ccf4304502c",
      "width" : 64
    } ],
    "name" : "mewithoutYou",
    "popularity" : 49,
    "type" : "artist",
    "uri" : "spotify:artist:3D4qYDvoPn5cQxtBm4oseo"
  }, {
    "external_urls" : {
      "spotify" : "https://open.spotify.com/artist/0n94vC3S9c3mb2HyNAOcjg"
    },
    "followers" : {
      "href" : null,
      "total" : 358035
    },
    "genres" : [ "acoustic pop", "chamber pop", "folk christmas", "folk-pop", "indie christmas", "indie folk", "indie pop", "indie rock", "neo mellow", "new americana", "pop", "seattle indie", "singer-songwriter", "stomp and holler" ],
    "href" : "https://api.spotify.com/v1/artists/0n94vC3S9c3mb2HyNAOcjg",
    "id" : "0n94vC3S9c3mb2HyNAOcjg",
    "images" : [ {
      "height" : 640,
      "url" : "https://i.scdn.co/image/0d2dafc11a480a88ef75a76d33726e93fa54ef71",
      "width" : 640
    }, {
      "height" : 320,
      "url" : "https://i.scdn.co/image/eb463616f848370de3693b76b2c8f269bce5e66e",
      "width" : 320
    }, {
      "height" : 160,
      "url" : "https://i.scdn.co/image/3e84cc96667bd21c7fe034ae4dce1f7f379ee0dd",
      "width" : 160
    } ],
    "name" : "The Head and the Heart",
    "popularity" : 73,
    "type" : "artist",
    "uri" : "spotify:artist:0n94vC3S9c3mb2HyNAOcjg"
  }, {
    "external_urls" : {
      "spotify" : "https://open.spotify.com/artist/57ylwQTnFnIhJh4nu4rxCs"
    },
    "followers" : {
      "href" : null,
      "total" : 336029
    },
    "genres" : [ "alternative metal", "groove metal", "melodic death metal", "melodic metalcore", "metal", "metalcore", "nu metal", "rap metal", "swedish metal" ],
    "href" : "https://api.spotify.com/v1/artists/57ylwQTnFnIhJh4nu4rxCs",
    "id" : "57ylwQTnFnIhJh4nu4rxCs",
    "images" : [ {
      "height" : 640,
      "url" : "https://i.scdn.co/image/37759207e2178446a12a0edf561f450ae0cdeea6",
      "width" : 640
    }, {
      "height" : 320,
      "url" : "https://i.scdn.co/image/516a42831b2bd8d9b860cafe5f58d5cd3253b4cc",
      "width" : 320
    }, {
      "height" : 160,
      "url" : "https://i.scdn.co/image/d0bd0ec6caece25479b9ccbd818f5452359fb046",
      "width" : 160
    } ],
    "name" : "In Flames",
    "popularity" : 70,
    "type" : "artist",
    "uri" : "spotify:artist:57ylwQTnFnIhJh4nu4rxCs"
  }, {
    "external_urls" : {
      "spotify" : "https://open.spotify.com/artist/168dgYui7ExaU612eooDF1"
    },
    "followers" : {
      "href" : null,
      "total" : 332314
    },
    "genres" : [ "alternative emo", "emo", "pop punk", "pop rock", "screamo" ],
    "href" : "https://api.spotify.com/v1/artists/168dgYui7ExaU612eooDF1",
    "id" : "168dgYui7ExaU612eooDF1",
    "images" : [ {
      "height" : 640,
      "url" : "https://i.scdn.co/image/7a8d4101dd3edbb715082dc66d13a1618d382fc1",
      "width" : 640
    }, {
      "height" : 320,
      "url" : "https://i.scdn.co/image/94e213ffe1edb8d4794784e3711a79faea734fc7",
      "width" : 320
    }, {
      "height" : 160,
      "url" : "https://i.scdn.co/image/5ac15ef4895f0994b0cafef316e913e6f868f8c2",
      "width" : 160
    } ],
    "name" : "Brand New",
    "popularity" : 67,
    "type" : "artist",
    "uri" : "spotify:artist:168dgYui7ExaU612eooDF1"
  }, {
    "external_urls" : {
      "spotify" : "https://open.spotify.com/artist/4LEiUm1SRbFMgfqnQTwUbQ"
    },
    "followers" : {
      "href" : null,
      "total" : 1536376
    },
    "genres" : [ "chamber pop", "folk-pop", "indie folk", "indie pop", "indie rock", "melancholia", "neo mellow", "slow core" ],
    "href" : "https://api.spotify.com/v1/artists/4LEiUm1SRbFMgfqnQTwUbQ",
    "id" : "4LEiUm1SRbFMgfqnQTwUbQ",
    "images" : [ {
      "height" : 640,
      "url" : "https://i.scdn.co/image/e759e8e517c8936035d6fb8a7535286937cf4e23",
      "width" : 640
    }, {
      "height" : 320,
      "url" : "https://i.scdn.co/image/0739e045db56b6d047c6b34063ff4e3aca21b4a0",
      "width" : 320
    }, {
      "height" : 160,
      "url" : "https://i.scdn.co/image/fb146ca5e799d8feb3040eddfd52464c09cb4f96",
      "width" : 160
    } ],
    "name" : "Bon Iver",
    "popularity" : 80,
    "type" : "artist",
    "uri" : "spotify:artist:4LEiUm1SRbFMgfqnQTwUbQ"
  }, {
    "external_urls" : {
      "spotify" : "https://open.spotify.com/artist/137W8MRPWKqSmrBGDBFSop"
    },
    "followers" : {
      "href" : null,
      "total" : 3652701
    },
    "genres" : [ "dwn trap", "pop rap", "rap", "southern hip hop", "trap music" ],
    "href" : "https://api.spotify.com/v1/artists/137W8MRPWKqSmrBGDBFSop",
    "id" : "137W8MRPWKqSmrBGDBFSop",
    "images" : [ {
      "height" : 1000,
      "url" : "https://i.scdn.co/image/8a2ec7c7298b8596980dba73271ddb936cc7b558",
      "width" : 1000
    }, {
      "height" : 640,
      "url" : "https://i.scdn.co/image/19dec98f9ee1440bbc21bef8f047dde79e809ef8",
      "width" : 640
    }, {
      "height" : 200,
      "url" : "https://i.scdn.co/image/574c21d10637523d918f18513d10465adc8ae6a1",
      "width" : 200
    }, {
      "height" : 64,
      "url" : "https://i.scdn.co/image/435c21bb1c5264b395cb4f18899f6241c75faa71",
      "width" : 64
    } ],
    "name" : "Wiz Khalifa",
    "popularity" : 90,
    "type" : "artist",
    "uri" : "spotify:artist:137W8MRPWKqSmrBGDBFSop"
  }, {
    "external_urls" : {
      "spotify" : "https://open.spotify.com/artist/72qxDp6R6v22pai96pZioz"
    },
    "followers" : {
      "href" : null,
      "total" : 106559
    },
    "genres" : [ "new age" ],
    "href" : "https://api.spotify.com/v1/artists/72qxDp6R6v22pai96pZioz",
    "id" : "72qxDp6R6v22pai96pZioz",
    "images" : [ {
      "height" : 1487,
      "url" : "https://i.scdn.co/image/6c5b35264fe2a974e01e18df8b1920a3c0737a94",
      "width" : 1000
    }, {
      "height" : 952,
      "url" : "https://i.scdn.co/image/3858a0c603857e9af89c2e0e2402a8cae4c88006",
      "width" : 640
    }, {
      "height" : 297,
      "url" : "https://i.scdn.co/image/5983892ef800e33004d1e3de0515cbd2b1921e02",
      "width" : 200
    }, {
      "height" : 95,
      "url" : "https://i.scdn.co/image/00a186b69116661ffbd5c1dc1a53f7fdc0fb5a5d",
      "width" : 64
    } ],
    "name" : "Yanni",
    "popularity" : 60,
    "type" : "artist",
    "uri" : "spotify:artist:72qxDp6R6v22pai96pZioz"
  }, {
    "external_urls" : {
      "spotify" : "https://open.spotify.com/artist/4IliztYDlfMvzQzbx50o60"
    },
    "followers" : {
      "href" : null,
      "total" : 251561
    },
    "genres" : [ "alternative metal", "christian alternative rock", "christian rock", "emo", "nu metal", "pop emo", "pop punk", "post-grunge", "rap metal", "rap rock", "screamo" ],
    "href" : "https://api.spotify.com/v1/artists/4IliztYDlfMvzQzbx50o60",
    "id" : "4IliztYDlfMvzQzbx50o60",
    "images" : [ {
      "height" : 667,
      "url" : "https://i.scdn.co/image/e9de1c2a993488a885096594902ad16b4d2f81ba",
      "width" : 1000
    }, {
      "height" : 427,
      "url" : "https://i.scdn.co/image/fbd1a0236a113d2c35b7699a96c00459cee9e2ac",
      "width" : 640
    }, {
      "height" : 133,
      "url" : "https://i.scdn.co/image/31daf32752560e825e7677baefa3e3be4e412acb",
      "width" : 200
    }, {
      "height" : 43,
      "url" : "https://i.scdn.co/image/78c3d3a8d68ae6f7d4dccd94ce9ce8887dbbca00",
      "width" : 64
    } ],
    "name" : "Flyleaf",
    "popularity" : 62,
    "type" : "artist",
    "uri" : "spotify:artist:4IliztYDlfMvzQzbx50o60"
  }, {
    "external_urls" : {
      "spotify" : "https://open.spotify.com/artist/0BvkDsjIUla7X0k6CSWh1I"
    },
    "followers" : {
      "href" : null,
      "total" : 1341666
    },
    "genres" : [ "contemporary country", "country", "country christmas", "country road" ],
    "href" : "https://api.spotify.com/v1/artists/0BvkDsjIUla7X0k6CSWh1I",
    "id" : "0BvkDsjIUla7X0k6CSWh1I",
    "images" : [ {
      "height" : 1000,
      "url" : "https://i.scdn.co/image/d60365dea3e87d399669c07a67221248467db284",
      "width" : 1000
    }, {
      "height" : 640,
      "url" : "https://i.scdn.co/image/beda540ce730f557fe753afe1088b3f0e3d6d37a",
      "width" : 640
    }, {
      "height" : 200,
      "url" : "https://i.scdn.co/image/b32a1115325702c359652c8e39a404f10d885e7c",
      "width" : 200
    }, {
      "height" : 64,
      "url" : "https://i.scdn.co/image/ed7a0255d6e8617380ff5d04c8d640feb4945e0a",
      "width" : 64
    } ],
    "name" : "Luke Bryan",
    "popularity" : 79,
    "type" : "artist",
    "uri" : "spotify:artist:0BvkDsjIUla7X0k6CSWh1I"
  }, {
    "external_urls" : {
      "spotify" : "https://open.spotify.com/artist/0gadJ2b9A4SKsB1RFkBb66"
    },
    "followers" : {
      "href" : null,
      "total" : 890043
    },
    "genres" : [ "folk-pop", "indie folk", "neo mellow", "pop", "singer-songwriter", "viral pop" ],
    "href" : "https://api.spotify.com/v1/artists/0gadJ2b9A4SKsB1RFkBb66",
    "id" : "0gadJ2b9A4SKsB1RFkBb66",
    "images" : [ {
      "height" : 640,
      "url" : "https://i.scdn.co/image/3b822e8c5d26c2352ad5528adc0035b636e8c293",
      "width" : 640
    }, {
      "height" : 320,
      "url" : "https://i.scdn.co/image/b56481207e0336813e87b802c30036dd6441acf4",
      "width" : 320
    }, {
      "height" : 160,
      "url" : "https://i.scdn.co/image/c6d4ea3e7053a820759049404e7cac6bb366d4ca",
      "width" : 160
    } ],
    "name" : "Passenger",
    "popularity" : 77,
    "type" : "artist",
    "uri" : "spotify:artist:0gadJ2b9A4SKsB1RFkBb66"
  }, {
    "external_urls" : {
      "spotify" : "https://open.spotify.com/artist/1NUOfvAhA9AvsF1ISMkgHX"
    },
    "followers" : {
      "href" : null,
      "total" : 100503
    },
    "genres" : [ "alternative metal", "dreamo", "emo", "metalcore", "pop punk", "post-hardcore", "progressive post-hardcore", "screamo" ],
    "href" : "https://api.spotify.com/v1/artists/1NUOfvAhA9AvsF1ISMkgHX",
    "id" : "1NUOfvAhA9AvsF1ISMkgHX",
    "images" : [ {
      "height" : 1000,
      "url" : "https://i.scdn.co/image/6f005f88cc2268338fdb96bd80d0a1a4043d943e",
      "width" : 1000
    }, {
      "height" : 640,
      "url" : "https://i.scdn.co/image/d5595e7199eb6649c195b403b4b422f69d3998d4",
      "width" : 640
    }, {
      "height" : 200,
      "url" : "https://i.scdn.co/image/a5c0c83b83024e3397e5ef5b9b606511d79113ec",
      "width" : 200
    }, {
      "height" : 64,
      "url" : "https://i.scdn.co/image/52bb876dd7be5c18b28089da167d9d2934eb2017",
      "width" : 64
    } ],
    "name" : "Saosin",
    "popularity" : 56,
    "type" : "artist",
    "uri" : "spotify:artist:1NUOfvAhA9AvsF1ISMkgHX"
  }, {
    "external_urls" : {
      "spotify" : "https://open.spotify.com/artist/0fauHpmSHwodVYIjTqOGHz"
    },
    "followers" : {
      "href" : null,
      "total" : 366654
    },
    "genres" : [ ],
    "href" : "https://api.spotify.com/v1/artists/0fauHpmSHwodVYIjTqOGHz",
    "id" : "0fauHpmSHwodVYIjTqOGHz",
    "images" : [ {
      "height" : 1500,
      "url" : "https://i.scdn.co/image/d73f8e8096a7c8c9f7730bd37aacfd99c20ff393",
      "width" : 1000
    }, {
      "height" : 960,
      "url" : "https://i.scdn.co/image/c949101244039e8a2a859ff9106cff041d642192",
      "width" : 640
    }, {
      "height" : 300,
      "url" : "https://i.scdn.co/image/238c6208d9a507d31dfe2fd367900bc04d506744",
      "width" : 200
    }, {
      "height" : 96,
      "url" : "https://i.scdn.co/image/a13326561dbc914c8c2c9471dd813983fc80e992",
      "width" : 64
    } ],
    "name" : "Yiruma",
    "popularity" : 70,
    "type" : "artist",
    "uri" : "spotify:artist:0fauHpmSHwodVYIjTqOGHz"
  }, {
    "external_urls" : {
      "spotify" : "https://open.spotify.com/artist/24OGO7fr96L0azkG3pZZa2"
    },
    "followers" : {
      "href" : null,
      "total" : 10574
    },
    "genres" : [ "alternative emo", "chaotic hardcore", "emo", "mathcore", "melodic hardcore", "metalcore", "straight edge" ],
    "href" : "https://api.spotify.com/v1/artists/24OGO7fr96L0azkG3pZZa2",
    "id" : "24OGO7fr96L0azkG3pZZa2",
    "images" : [ {
      "height" : 1000,
      "url" : "https://i.scdn.co/image/8650a2b3e0f892a7ab4fae8d1f3e8498889ab691",
      "width" : 1000
    }, {
      "height" : 640,
      "url" : "https://i.scdn.co/image/2bb1d6bf9765b17c9391dcdedd9d9ed8bc81b73a",
      "width" : 640
    }, {
      "height" : 200,
      "url" : "https://i.scdn.co/image/f1c679775a2501845340ad4e889d461b89179fc4",
      "width" : 200
    }, {
      "height" : 64,
      "url" : "https://i.scdn.co/image/9185a013cdf3397f9f78334fd0c3ee4fb05e317d",
      "width" : 64
    } ],
    "name" : "Modern Life Is War",
    "popularity" : 33,
    "type" : "artist",
    "uri" : "spotify:artist:24OGO7fr96L0azkG3pZZa2"
  }, {
    "external_urls" : {
      "spotify" : "https://open.spotify.com/artist/5X0N2k3qMnI8kSrGJT3kfT"
    },
    "followers" : {
      "href" : null,
      "total" : 127270
    },
    "genres" : [ "bow pop", "celtic rock", "folk metal", "gothic metal", "melodic death metal", "metal", "power metal", "viking metal" ],
    "href" : "https://api.spotify.com/v1/artists/5X0N2k3qMnI8kSrGJT3kfT",
    "id" : "5X0N2k3qMnI8kSrGJT3kfT",
    "images" : [ {
      "height" : 1500,
      "url" : "https://i.scdn.co/image/71c0b5335299b6b2ff8af3ae9bdebaecb462fddf",
      "width" : 1000
    }, {
      "height" : 960,
      "url" : "https://i.scdn.co/image/2e32ba548d3efb64449cddfe11e6c6a8be3eb0aa",
      "width" : 640
    }, {
      "height" : 300,
      "url" : "https://i.scdn.co/image/78bb7a7cb0fd8c4f79fbb9f0213625aef64346e3",
      "width" : 200
    }, {
      "height" : 96,
      "url" : "https://i.scdn.co/image/1339b0a1bd5f67e6ed8db680f53b897e17308f88",
      "width" : 64
    } ],
    "name" : "Eluveitie",
    "popularity" : 56,
    "type" : "artist",
    "uri" : "spotify:artist:5X0N2k3qMnI8kSrGJT3kfT"
  }, {
    "external_urls" : {
      "spotify" : "https://open.spotify.com/artist/6jEiUoyyJNPHzSR0Nib6HX"
    },
    "followers" : {
      "href" : null,
      "total" : 290100
    },
    "genres" : [ "viral pop" ],
    "href" : "https://api.spotify.com/v1/artists/6jEiUoyyJNPHzSR0Nib6HX",
    "id" : "6jEiUoyyJNPHzSR0Nib6HX",
    "images" : [ {
      "height" : 767,
      "url" : "https://i.scdn.co/image/eb3bcd9b4ad2c88c65373fb10bf4a9941f38bffc",
      "width" : 1000
    }, {
      "height" : 491,
      "url" : "https://i.scdn.co/image/45b7f363db2baced1e4d2b841c04302acd41a3f1",
      "width" : 640
    }, {
      "height" : 153,
      "url" : "https://i.scdn.co/image/92132556a7a57fbf9ec961b803f431e43f3ddada",
      "width" : 199
    }, {
      "height" : 49,
      "url" : "https://i.scdn.co/image/cf1744384920bc9e20e7eddde2f8e87e39450e32",
      "width" : 64
    } ],
    "name" : "Walk Off the Earth",
    "popularity" : 66,
    "type" : "artist",
    "uri" : "spotify:artist:6jEiUoyyJNPHzSR0Nib6HX"
  }, {
    "external_urls" : {
      "spotify" : "https://open.spotify.com/artist/6ui6SwChan7c1KYBQCqGKV"
    },
    "followers" : {
      "href" : null,
      "total" : 42388
    },
    "genres" : [ "finnish metal", "folk metal", "gothic metal", "melodic death metal", "metal", "neo classical metal", "power metal", "progressive metal", "symphonic black metal", "viking metal" ],
    "href" : "https://api.spotify.com/v1/artists/6ui6SwChan7c1KYBQCqGKV",
    "id" : "6ui6SwChan7c1KYBQCqGKV",
    "images" : [ {
      "height" : 667,
      "url" : "https://i.scdn.co/image/08bc6c49a3de99e049aa6d516087536767f5152e",
      "width" : 1000
    }, {
      "height" : 427,
      "url" : "https://i.scdn.co/image/fbe92bb4fcde2e5e46cc9bfb3427cea7afd7bb4c",
      "width" : 640
    }, {
      "height" : 133,
      "url" : "https://i.scdn.co/image/c5df832927f26455b0e7407610b397f4dc141d08",
      "width" : 200
    }, {
      "height" : 43,
      "url" : "https://i.scdn.co/image/9dd2ab72513dc21cce8851a9505a67c2ac293530",
      "width" : 64
    } ],
    "name" : "Wintersun",
    "popularity" : 43,
    "type" : "artist",
    "uri" : "spotify:artist:6ui6SwChan7c1KYBQCqGKV"
  }, {
    "external_urls" : {
      "spotify" : "https://open.spotify.com/artist/7lQKE6HaKQcCsgLRMhsh5W"
    },
    "followers" : {
      "href" : null,
      "total" : 141326
    },
    "genres" : [ "alternative emo", "emo", "pixie", "pop punk", "post-hardcore", "progressive post-hardcore", "screamo" ],
    "href" : "https://api.spotify.com/v1/artists/7lQKE6HaKQcCsgLRMhsh5W",
    "id" : "7lQKE6HaKQcCsgLRMhsh5W",
    "images" : [ {
      "height" : 667,
      "url" : "https://i.scdn.co/image/48662087c4a224430d85f9c81556d66cef1e59ed",
      "width" : 1000
    }, {
      "height" : 427,
      "url" : "https://i.scdn.co/image/c0601a5b76190c2e636036a2924c888f2c02c762",
      "width" : 640
    }, {
      "height" : 133,
      "url" : "https://i.scdn.co/image/2e7314d1241db80beca096c70b8d8add2240f667",
      "width" : 199
    }, {
      "height" : 43,
      "url" : "https://i.scdn.co/image/be6032b375ea8bbb2c22ed5e726f46d39a166432",
      "width" : 64
    } ],
    "name" : "La Dispute",
    "popularity" : 56,
    "type" : "artist",
    "uri" : "spotify:artist:7lQKE6HaKQcCsgLRMhsh5W"
  }, {
    "external_urls" : {
      "spotify" : "https://open.spotify.com/artist/10exVja0key0uqUkk6LJRT"
    },
    "followers" : {
      "href" : null,
      "total" : 580461
    },
    "genres" : [ "folk-pop", "indie folk", "indie pop", "neo mellow", "pop" ],
    "href" : "https://api.spotify.com/v1/artists/10exVja0key0uqUkk6LJRT",
    "id" : "10exVja0key0uqUkk6LJRT",
    "images" : [ {
      "height" : 640,
      "url" : "https://i.scdn.co/image/09f8085b30ded8000e59820d02f67139c5c24a49",
      "width" : 640
    }, {
      "height" : 320,
      "url" : "https://i.scdn.co/image/0384f613228b092c1a19df2b25022bacf5333da9",
      "width" : 320
    }, {
      "height" : 160,
      "url" : "https://i.scdn.co/image/9831a4946cf2ce2eefe61091c728e526901e975c",
      "width" : 160
    } ],
    "name" : "Vance Joy",
    "popularity" : 76,
    "type" : "artist",
    "uri" : "spotify:artist:10exVja0key0uqUkk6LJRT"
  }, {
    "external_urls" : {
      "spotify" : "https://open.spotify.com/artist/5TBBfQmoupMHCrtIDFfo34"
    },
    "followers" : {
      "href" : null,
      "total" : 51
    },
    "genres" : [ ],
    "href" : "https://api.spotify.com/v1/artists/5TBBfQmoupMHCrtIDFfo34",
    "id" : "5TBBfQmoupMHCrtIDFfo34",
    "images" : [ {
      "height" : 640,
      "url" : "https://i.scdn.co/image/3b2f793ee3ce5c64cd1171f5043f1f207ebeab2c",
      "width" : 640
    }, {
      "height" : 300,
      "url" : "https://i.scdn.co/image/7e47cf15ee91655f86cc534fc4230fda04dfc5eb",
      "width" : 300
    }, {
      "height" : 64,
      "url" : "https://i.scdn.co/image/919c20b595a36821a9f536837c8fff4231e5bf77",
      "width" : 64
    } ],
    "name" : "Priki",
    "popularity" : 2,
    "type" : "artist",
    "uri" : "spotify:artist:5TBBfQmoupMHCrtIDFfo34"
  } ],
  "total" : 50,
  "limit" : 20,
  "offset" : 0,
  "href" : "https://api.spotify.com/v1/me/top/artists",
  "previous" : null,
  "next" : "https://api.spotify.com/v1/me/top/artists?limit=20&offset=20"
}
